Chapter 1 Cluster computing | DataManagement.knit
…
## ── Column specification ────────────────────────────────────────────────────────
## Delimiter: ","
## dbl (3): year, month, temperature

## 
## ℹ Use `spec()` to retrieve the full column specification for this data.
## ℹ Specify the column types or set `show_col_types = FALSE` to quiet this message.

# tabulate frequencies for temperature
t %>% 
  mutate(Fahrenheit = round(temperature,0)) %>% 
  group_by(Fahrenheit) %>%
  summarize(Frequency = n())

## # A tibble: 61 × 2
##    Fahrenheit Frequency
##         <dbl>     <int>
##  1         20         1
##  2         22         2
##  3         23         3
##  4         24         5
##  5         25        15
##  6         26        10
##  7         27         8
##  8         28        19
##  9         29        24
## 10         30        32
## # … with 51 more rows
…
## 
## ℹ Use `spec()` to retrieve the full column specification for this data.
## ℹ Specify the column types or set `show_col_types = FALSE` to quiet this message.

# report minimum, mean, and maximum by year
t %>% 
  group_by(year) %>%
  summarize(Min=min(temperature),
            Mean = round(mean(temperature),1), 
            Max = max(temperature))

## # A tibble: 150 × 4
##     year   Min  Mean   Max
##    <dbl> <dbl> <dbl> <dbl>
##  1  1869  34.5  51.4  72.8
##  2  1870  31.3  53.6  76.6
##  3  1871  28.3  51.1  73.6
##  4  1872  26.7  51    77.5
##  5  1873  28.6  51    75.4
##  6  1874  31.3  51.3  73.9
##  7  1875  23.8  49.4  74  
##  8  1876  24.9  51.9  79.4
##  9  1877  27.7  52.8  75.4
## 10  1878  30.3  53.5  77.8
## # … with 140 more rows
…
